<?xml version="1.0" encoding="UTF-8" standalone="no"?>
<!-- Created with Inkscape (http://www.inkscape.org/) -->

<svg
   xmlns:dc="http://purl.org/dc/elements/1.1/"
   xmlns:cc="http://creativecommons.org/ns#"
   xmlns:rdf="http://www.w3.org/1999/02/22-rdf-syntax-ns#"
   xmlns:svg="http://www.w3.org/2000/svg"
   xmlns="http://www.w3.org/2000/svg"
   xmlns:sodipodi="http://sodipodi.sourceforge.net/DTD/sodipodi-0.dtd"
   xmlns:inkscape="http://www.inkscape.org/namespaces/inkscape"
   width="360"
   height="120"
   viewBox="0 0 95.249998 31.750001"
   version="1.1"
   id="svg1352"
   inkscape:version="0.92.4 (5da689c313, 2019-01-14)"
   sodipodi:docname="logo.svg">
  <defs
     id="defs1346">
    <clipPath
       clipPathUnits="userSpaceOnUse"
       id="clipPath1001">
      <rect
         style="opacity:1;fill:#ffffff;fill-opacity:1;fill-rule:nonzero;stroke:none;stroke-width:0.92113364;stroke-linecap:round;stroke-linejoin:miter;stroke-miterlimit:4;stroke-dasharray:none;stroke-dashoffset:0;stroke-opacity:1"
         id="rect1003"
         width="86.254166"
         height="17.991667"
         x="0"
         y="268.68958" />
    </clipPath>
  </defs>
  <sodipodi:namedview
     id="base"
     pagecolor="#ffffff"
     bordercolor="#666666"
     borderopacity="1.0"
     inkscape:pageopacity="0.0"
     inkscape:pageshadow="2"
     inkscape:zoom="1.4"
     inkscape:cx="379.3199"
     inkscape:cy="-47.354361"
     inkscape:document-units="mm"
     inkscape:current-layer="layer1"
     showgrid="false"
     units="px"
     inkscape:window-width="1920"
     inkscape:window-height="1017"
     inkscape:window-x="-8"
     inkscape:window-y="-8"
     inkscape:window-maximized="1" />
  <metadata
     id="metadata1349">
    <rdf:RDF>
      <cc:Work
         rdf:about="">
        <dc:format>image/svg+xml</dc:format>
        <dc:type
           rdf:resource="http://purl.org/dc/dcmitype/StillImage" />
        <dc:title />
      </cc:Work>
    </rdf:RDF>
  </metadata>
  <g
     inkscape:label="Calque 1"
     inkscape:groupmode="layer"
     id="layer1"
     transform="translate(0,-265.24998)">
    <rect
       y="285.04337"
       x="3"
       height="2.9104166"
       width="81.756248"
       id="rect996"
       style="display:inline;opacity:1;fill:#2196f3;fill-opacity:1;fill-rule:nonzero;stroke:none;stroke-width:0.69855964;stroke-linecap:round;stroke-linejoin:miter;stroke-miterlimit:4;stroke-dasharray:none;stroke-dashoffset:0;stroke-opacity:1" />
    <rect
       y="286.0625"
       x="86.480629"
       height="1.5848138"
       width="1.5848138"
       id="rect905-8"
       style="display:inline;opacity:1;fill:#2196f3;fill-opacity:1;fill-rule:nonzero;stroke:none;stroke-width:0.75007081;stroke-linecap:round;stroke-linejoin:miter;stroke-miterlimit:4;stroke-dasharray:none;stroke-dashoffset:0;stroke-opacity:1" />
    <rect
       y="287.74307"
       x="90.406197"
       height="1.4268601"
       width="1.4268601"
       id="rect907-4"
       style="display:inline;opacity:1;fill:#3f51b5;fill-opacity:1;fill-rule:nonzero;stroke:none;stroke-width:0.67531353;stroke-linecap:round;stroke-linejoin:miter;stroke-miterlimit:4;stroke-dasharray:none;stroke-dashoffset:0;stroke-opacity:1" />
    <rect
       y="291.81717"
       x="88.540596"
       height="2.1828125"
       width="2.1828125"
       id="rect909-1"
       style="display:inline;opacity:1;fill:#3f51b5;fill-opacity:1;fill-rule:nonzero;stroke:none;stroke-width:1.03309548;stroke-linecap:round;stroke-linejoin:miter;stroke-miterlimit:4;stroke-dasharray:none;stroke-dashoffset:0;stroke-opacity:1" />
    <rect
       y="289.53989"
       x="88.058678"
       height="0.85989583"
       width="0.81264895"
       id="rect911-0"
       style="display:inline;opacity:1;fill:#3f51b5;fill-opacity:1;fill-rule:nonzero;stroke:none;stroke-width:0.39563835;stroke-linecap:round;stroke-linejoin:miter;stroke-miterlimit:4;stroke-dasharray:none;stroke-dashoffset:0;stroke-opacity:1" />
    <rect
       y="287.97595"
       x="88.66346"
       height="0.85989583"
       width="0.81264901"
       id="rect913-7"
       style="display:inline;opacity:1;fill:#2196f3;fill-opacity:1;fill-rule:nonzero;stroke:none;stroke-width:0.39563835;stroke-linecap:round;stroke-linejoin:miter;stroke-miterlimit:4;stroke-dasharray:none;stroke-dashoffset:0;stroke-opacity:1" />
    <rect
       y="290.1777"
       x="92.09832"
       height="2.1828125"
       width="2.1828125"
       id="rect915-2"
       style="display:inline;opacity:1;fill:#2196f3;fill-opacity:1;fill-rule:nonzero;stroke:none;stroke-width:1.03309548;stroke-linecap:round;stroke-linejoin:miter;stroke-miterlimit:4;stroke-dasharray:none;stroke-dashoffset:0;stroke-opacity:1" />
    <rect
       y="289.94147"
       x="90.345436"
       height="0.85989583"
       width="0.81264901"
       id="rect917-6"
       style="display:inline;opacity:1;fill:#2196f3;fill-opacity:1;fill-rule:nonzero;stroke:none;stroke-width:0.39563835;stroke-linecap:round;stroke-linejoin:miter;stroke-miterlimit:4;stroke-dasharray:none;stroke-dashoffset:0;stroke-opacity:1" />
    <g
       transform="translate(2.206248,-2.4316225)"
       aria-label="outflow"
       style="font-style:normal;font-weight:normal;font-size:24.71771622px;line-height:1.25;font-family:sans-serif;letter-spacing:0px;word-spacing:0px;display:inline;fill:#000000;fill-opacity:1;stroke:none;stroke-width:0.61794281"
       id="g983"
       clip-path="url(#clipPath1001)">
      <path
         d="m 2.6458334,282.20038 q 0,-1.94763 0.7594521,-3.50328 0.7717014,-1.55565 2.1313658,-2.40085 1.3719136,-0.84519 3.1235533,-0.84519 2.7070794,0 4.3729744,1.87413 1.678144,1.87413 1.678144,4.98544 v 0.15924 q 0,1.93537 -0.747202,3.47878 -0.734954,1.53115 -2.119117,2.3886 -1.371914,0.85744 -3.160301,0.85744 -2.6948303,0 -4.3729746,-1.87413 -1.665895,-1.87413 -1.665895,-4.96094 z m 2.2783565,0.26949 q 0,2.20486 1.0166859,3.54002 1.0289352,1.33517 2.7438272,1.33517 1.727141,0 2.743827,-1.34742 1.016686,-1.35966 1.016686,-3.79726 0,-2.18036 -1.041184,-3.52778 -1.028935,-1.35966 -2.7438274,-1.35966 -1.6781443,0 -2.7070795,1.33517 -1.0289352,1.33516 -1.0289352,3.82176 z"
         style="font-style:normal;font-variant:normal;font-weight:normal;font-stretch:normal;font-size:25.08642006px;font-family:Roboto;-inkscape-font-specification:Roboto;fill:#000000;fill-opacity:1;stroke-width:0.61794281"
         id="path971"
         inkscape:connector-curvature="0" />
      <path
         d="m 25.73563,287.63904 q -1.322917,1.55565 -3.883006,1.55565 -2.119116,0 -3.233796,-1.22492 -1.102431,-1.23717 -1.11468,-3.65027 v -8.62346 h 2.266107 v 8.56221 q 0,3.01331 2.449846,3.01331 2.596836,0 3.454282,-1.93538 v -9.64014 h 2.266108 v 13.25367 h -2.155865 z"
         style="font-style:normal;font-variant:normal;font-weight:normal;font-stretch:normal;font-size:25.08642006px;font-family:Roboto;-inkscape-font-specification:Roboto;fill:#000000;fill-opacity:1;stroke-width:0.61794281"
         id="path973"
         inkscape:connector-curvature="0" />
      <path
         d="m 34.444831,272.48674 v 3.2093 h 2.474345 v 1.75164 h -2.474345 v 8.21923 q 0,0.7962 0.33073,1.20043 0.330729,0.39197 1.126929,0.39197 0.391975,0 1.077932,-0.14699 v 1.83739 q -0.894194,0.24498 -1.739391,0.24498 -1.518904,0 -2.290606,-0.91869 -0.771701,-0.91869 -0.771701,-2.60909 v -8.21923 h -2.413098 v -1.75164 h 2.413098 v -3.2093 z"
         style="font-style:normal;font-variant:normal;font-weight:normal;font-stretch:normal;font-size:25.08642006px;font-family:Roboto;-inkscape-font-specification:Roboto;fill:#000000;fill-opacity:1;stroke-width:0.61794281"
         id="path975"
         inkscape:connector-curvature="0" />
      <path
         d="m 47.833237,272.05802 q -1.518904,-0.24498 -2.449846,-0.24498 -2.449845,0 -2.449845,2.57233 v 1.31067 h 2.829572 v 1.75164 h -2.829572 v 11.50203 H 40.667438 V 277.44768 H 38.57282 v -1.75164 h 2.094618 v -1.44541 q 0.01225,-2.11911 1.188176,-3.24604 1.175926,-1.12693 3.344039,-1.12693 1.237172,0 4.899691,0.7472 v 18.32485 h -2.266107 z"
         style="font-style:normal;font-variant:normal;font-weight:normal;font-stretch:normal;font-size:25.08642006px;font-family:Roboto;-inkscape-font-specification:Roboto;fill:#000000;fill-opacity:1;stroke-width:0.61794281"
         id="path977"
         inkscape:connector-curvature="0" />
      <path
         d="m 53.210649,282.20038 q 0,-1.94763 0.759452,-3.50328 0.771701,-1.55565 2.131366,-2.40085 1.371913,-0.84519 3.123553,-0.84519 2.70708,0 4.372975,1.87413 1.678144,1.87413 1.678144,4.98544 v 0.15924 q 0,1.93537 -0.747203,3.47878 -0.734954,1.53115 -2.119116,2.3886 -1.371914,0.85744 -3.160301,0.85744 -2.694831,0 -4.372975,-1.87413 -1.665895,-1.87413 -1.665895,-4.96094 z m 2.278356,0.26949 q 0,2.20486 1.016686,3.54002 1.028936,1.33517 2.743828,1.33517 1.727141,0 2.743827,-1.34742 1.016686,-1.35966 1.016686,-3.79726 0,-2.18036 -1.041185,-3.52778 -1.028935,-1.35966 -2.743827,-1.35966 -1.678144,0 -2.707079,1.33517 -1.028936,1.33516 -1.028936,3.82176 z"
         style="font-style:normal;font-variant:normal;font-weight:normal;font-stretch:normal;font-size:25.08642006px;font-family:Roboto;-inkscape-font-specification:Roboto;fill:#000000;fill-opacity:1;stroke-width:0.61794281"
         id="path979"
         inkscape:connector-curvature="0" />
      <path
         d="m 79.852724,285.82615 2.54784,-10.13011 h 2.266107 l -3.858507,13.25367 H 78.97078 l -3.221547,-10.04437 -3.135803,10.04437 h -1.837384 l -3.846258,-13.25367 h 2.253858 l 2.609086,9.92188 3.086805,-9.92188 h 1.825135 z"
         style="font-style:normal;font-variant:normal;font-weight:normal;font-stretch:normal;font-size:25.08642006px;font-family:Roboto;-inkscape-font-specification:Roboto;fill:#000000;fill-opacity:1;stroke-width:0.61794281"
         id="path981"
         inkscape:connector-curvature="0" />
    </g>
  </g>
</svg>
